<svg xmlns="http://www.w3.org/2000/svg" width="24" height="24" viewBox="0 0 24 24">
    <path fill="#C8D0E0" fill-rule="nonzero" d="M15.317 11.924l-5.62-5.217a.67.67 0 1 0-.911.982l4.561 4.235a.74.74 0 0 1 0 1.085l-4.605 4.277a.67.67 0 0 0 .911.982l5.664-5.259a.74.74 0 0 0 0-1.085z"/>
</svg>
