<svg xmlns="http://www.w3.org/2000/svg" width="22" height="22" viewBox="0 0 22 22">
    <path fill="#1E2025" fill-rule="evenodd" d="M14.298 11.52L9.5 16.334a.543.543 0 0 1-.808-.033.654.654 0 0 1 .03-.873l3.895-3.91a.722.722 0 0 0 0-1L8.683 6.57a.654.654 0 0 1-.03-.873.543.543 0 0 1 .809-.033l4.836 4.853a.722.722 0 0 1 0 1.001z"/>
</svg>
