<svg xmlns="http://www.w3.org/2000/svg" width="24" height="24" viewBox="0 0 24 24">
    <path fill="#1E2025" fill-rule="nonzero" d="M11.994 6.655L9.406 9.243l-.947-.947 3.535-3.536 3.536 3.536-.948.947-2.588-2.588zm0 10.693l2.588-2.588.948.948-3.536 3.535-3.535-3.535.947-.948 2.588 2.588z"/>
</svg>
