<svg xmlns="http://www.w3.org/2000/svg" width="36" height="36" viewBox="0 0 36 36">
    <path fill="#5691F0" fill-rule="evenodd" d="M27.035 2.426a17.643 17.643 0 0 1 6.557 6.539C35.197 11.73 36 14.742 36 18s-.803 6.27-2.408 9.035a17.775 17.775 0 0 1-6.557 6.557C24.27 35.197 21.258 36 18 36s-6.27-.803-9.035-2.408a17.775 17.775 0 0 1-6.557-6.557C.803 24.27 0 21.258 0 18s.803-6.27 2.408-9.035a17.775 17.775 0 0 1 6.557-6.557C11.73.803 14.742 0 18 0s6.27.809 9.035 2.426zm.106 10.09c.257-.235.386-.528.386-.88 0-.35-.123-.65-.369-.896a1.22 1.22 0 0 0-.896-.369 1.25 1.25 0 0 0-.914.387L13.852 22.289l-3.024-5.238a1.179 1.179 0 0 0-.756-.598 1.216 1.216 0 0 0-.967.123 1.24 1.24 0 0 0-.597.756c-.094.328-.047.645.14.95l3.832 6.714c.235.422.598.633 1.09.633.235 0 .446-.059.633-.176.117-.07.211-.14.281-.21l.036-.036 12.62-12.691z"/>
</svg>
